…
sigDEG <- res_table_tb %>% 
          filter(padj < 0.05 & abs(log2FoldChange) > 1)
```

``` r
# Visualizing significant differentially expressed genes table

sigDEG
```

    ## # A tibble: 5,503 × 6
    ##    gene            baseMean log2FoldChange lfcSE   pvalue     padj
    ##    <chr>              <dbl>          <dbl> <dbl>    <dbl>    <dbl>
    ##  1 ENSG00000261606     52.2           3.52 0.550 1.25e-11 2.97e-10
    ##  2 ENSG00000254141     31.1           1.09 0.532 7.47e- 3 2.62e- 2
    ##  3 ENSG00000283689     21.1          -1.62 0.813 3.67e- 3 1.44e- 2
    ##  4 ENSG00000149243    299.            1.52 0.256 4.37e-10 8.18e- 9
    ##  5 ENSG00000286068     12.4           1.41 0.872 9.72e- 3 3.26e- 2
    ##  6 ENSG00000163462    235.           -2.11 0.283 9.72e-15 3.61e-13
    ##  7 ENSG00000162599   1904.           -1.65 0.624 7.25e- 4 3.59e- 3
    ##  8 ENSG00000259165     75.9          -1.81 0.301 2.36e-10 4.64e- 9
    ##  9 ENSG00000238485     11.1           3.92 1.17  7.87e- 5 5.11e- 4
    ## 10 ENSG00000055070   6412.            1.14 0.451 2.20e- 3 9.31e- 3
    ## # … with 5,493 more rows
…
gathered_top10_sig_genes <- top10_sig_genes %>%
  gather(colnames(top10_sig_genes)[3:8], key = "samplename", value = "normalized_counts")

# Add a column with sample type for each sample

gathered_top10_sig_genes$sampletype <- rep(c('control', 'treated'), each=30)

# View "gathered" data frame

gathered_top10_sig_genes
```

    ## # A tibble: 60 × 5
    ##    gene            SYMBOL          samplename normalized_counts sampletype
    ##    <chr>           <chr>           <chr>                  <dbl> <chr>     
    ##  1 ENSG00000091128 LAMB4           control_1               25.6 control   
    ##  2 ENSG00000174038 C9orf131        control_1               28.4 control   
    ##  3 ENSG00000180573 H2AC6           control_1             2512.  control   
    ##  4 ENSG00000182648 LINC01006       control_1               61.5 control   
    ##  5 ENSG00000279608 ENSG00000279608 control_1              400.  control   
    ##  6 MSTRG.11005     MSTRG.11005     control_1               71.9 control   
    ##  7 MSTRG.13783     MSTRG.13783     control_1              860.  control   
    ##  8 MSTRG.13991     MSTRG.13991     control_1             1253.  control   
    ##  9 MSTRG.15244     MSTRG.15244     control_1             1009.  control   
    ## 10 MSTRG.3005      MSTRG.3005      control_1             3528.  control   
    ## # … with 50 more rows
…
